<?xml version="1.0" encoding="utf-8"?>
<!-- Generator: Adobe Illustrator 16.0.2, SVG Export Plug-In . SVG Version: 6.00 Build 0)  -->
<!DOCTYPE svg PUBLIC "-//W3C//DTD SVG 1.1//EN" "http://www.w3.org/Graphics/SVG/1.1/DTD/svg11.dtd">
<svg version="1.1" id="Layer_1" xmlns="http://www.w3.org/2000/svg" viewBox="0 0 400 100">
<style type="text/css">
<![CDATA[
	.st0{fill:#EE6E73;}
]]>
</style>
<path class="st0" d="M89.6386719,17.3603516c3.3735352,0,6.1083984-2.734375,6.1083984-6.1083984
	c0-0.0634766-0.0029297-0.1269531-0.0048828-0.1894531c0.0214844-1.0576172-0.2329102-2.1357422-0.7348633-3.0634766
	c-1.0898438-2.0146484-3.1240234-3.3789063-5.277832-4.1591797c-4.5224609-1.6386719-9.7719727-0.7021484-13.6806641,2.0585938
	H32.3276367c-3.9082031-2.7607422-9.1577148-3.6972656-13.6806641-2.0585938
	c-2.1533203,0.7802734-4.1879883,2.1445313-5.277832,4.1591797c-0.5019531,0.9277344-0.7558594,2.0058594-0.7348633,3.0634766
	c-0.0014648,0.0625-0.0043945,0.1259766-0.0043945,0.1894531c0,3.3740234,2.7348633,6.1083984,6.1083984,6.1083984
	s6.1079102-2.734375,6.1079102-6.1083984c0-0.1650391-0.0083008-0.3271484-0.0209961-0.4892578
	c2.5507813,0.5605469,4.4946289,2.9550781,5.1035156,5.5292969c0.6489258,2.7431641,0.0561523,5.6289063-0.8271484,8.3046875
	c-2.9638672,8.9814453-9.1630859,16.84375-11.6787109,25.8378906C15.25,55.3369141,13.8920898,60.5771484,13.7563477,65.9238281
	c-0.2075195,8.1855469,2.6630859,16.609375,8.5952148,22.2539063c5.0830078,4.8378906,12.0195313,7.3554688,18.9750977,8.2851563
	c4.2612305,0.5693359,8.5610352,0.5878906,12.8618164,0.3945313c4.3007813,0.1933594,8.6000977,0.1748047,12.8618164-0.3945313
	c6.9550781-0.9296875,13.8920898-3.4472656,18.9750977-8.2851563c5.9316406-5.6445313,8.8027344-14.0683594,8.5952148-22.2539063
	c-0.1357422-5.3466797-1.4941406-10.5869141-3.6665039-15.4892578c-2.515625-8.9941406-8.715332-16.8564453-11.6791992-25.8378906
	c-0.8833008-2.6757813-1.4755859-5.5615234-0.8266602-8.3046875c0.6088867-2.5742188,2.5527344-4.96875,5.1035156-5.5292969
	c-0.0131836,0.1621094-0.0214844,0.3242188-0.0214844,0.4892578C83.5302734,14.6259766,86.2651367,17.3603516,89.6386719,17.3603516
	z M41.4008789,82.4550781C39.0522461,81.2890625,36.8696289,79.796875,34.9536133,78
	c-6.7485352-6.3251953-9.9731445-16.1933594-8.2617188-25.2832031c1.3945313-7.40625,5.7133789-13.8730469,8.7558594-20.7685547
	c3.0424805-6.8945313,4.7226563-15.2382813,0.9008789-21.7333984c-0.206543-0.3505859-0.4296875-0.6894531-0.6660156-1.0175781
	h5.7182617V82.4550781z M47.2226563,84.5888672c-1.2861328-0.3193359-2.5498047-0.7265625-3.7788086-1.2197266V9.1972656h3.7788086
	V84.5888672z M53.0449219,85.4130859c-1.2661133-0.046875-2.5297852-0.1796875-3.7788086-0.3955078V9.1972656h3.7788086V85.4130859z
	 M58.8666992,85.0595703c-1.2504883,0.2041016-2.5136719,0.3251953-3.7788086,0.3613281V9.1972656h3.7788086V85.0595703z
	 M64.6884766,83.4658203c-1.2299805,0.4804688-2.4936523,0.8759766-3.7783203,1.1826172V9.1972656h3.7783203V83.4658203z
	 M81.6850586,52.7167969C83.3964844,61.8066406,80.171875,71.6748047,73.4228516,78
	c-1.9814453,1.8583984-4.2495117,3.390625-6.690918,4.5732422V9.1972656h5.9624023
	c-0.2363281,0.328125-0.4594727,0.6669922-0.6660156,1.0175781c-3.8222656,6.4951172-2.1416016,14.8388672,0.9003906,21.7333984
	C75.9716797,38.84375,80.2900391,45.3105469,81.6850586,52.7167969z"/>
<g>
	<path class="st0" d="M151.2304688,50.7646484c0,14.7275391-8.1533203,23.9765625-21.140625,23.9765625
		c-12.9550781,0-21.1083984-9.2490234-21.1083984-23.9765625s8.1533203-24.0087891,21.1083984-24.0087891
		S151.2304688,36.0371094,151.2304688,50.7646484z M113.4931641,50.7646484
		c0,12.1816406,6.4130859,19.8837891,16.5966797,19.8837891S146.71875,62.9462891,146.71875,50.7646484
		c0-12.2138672-6.4453125-19.9160156-16.6289063-19.9160156S113.4931641,38.5507813,113.4931641,50.7646484z"/>
	<path class="st0" d="M162.4453125,74H158.0625V27.4970703h16.4033203c9.0878906,0,14.8886719,5.3173828,14.8886719,13.5996094
		c0,6.5742188-3.7382813,11.5371094-9.9580078,13.1484375L190.6757813,74h-5.15625l-10.6992188-19.0458984
		c-0.1611328,0-0.4833984,0-0.7089844,0h-11.6660156V74z M162.4453125,51.0546875h11.6660156
		c6.7675781,0,10.6992188-3.609375,10.6992188-9.8291016c0-6.1552734-4.0927734-9.796875-10.8603516-9.796875h-11.5048828
		V51.0546875z"/>
	<path class="st0" d="M212.3320313,27.4970703c8.8945313,0,14.9208984,5.8330078,14.9208984,14.4697266
		S221.1621094,56.46875,212.2998047,56.46875h-11.4082031V74h-4.3828125V27.4970703H212.3320313z M200.8916016,52.5371094
		h10.4091797c7.1542969,0,11.4404297-3.9638672,11.4404297-10.5703125s-4.2539063-10.5380859-11.4404297-10.5380859h-10.4091797
		V52.5371094z"/>
	<path class="st0" d="M265.1513672,74V52.1826172h-27.1992188V74h-4.3828125V27.4970703h4.3828125v20.6894531h27.1992188V27.4970703
		h4.4150391V74H265.1513672z"/>
	<path class="st0" d="M306.3369141,74h-28.0693359V27.4970703h28.0693359v3.9960938h-23.6865234V48.21875h22.4941406v3.9316406
		h-22.4941406v17.8535156h23.6865234V74z"/>
	<path class="st0" d="M318.2285156,57.5c0,7.7988281,5.0917969,13.1484375,13.5996094,13.1484375
		c8.5400391,0,13.5996094-5.3496094,13.5996094-13.1484375V27.4970703h4.4150391v30.2607422
		c0,10.0224609-6.8320313,16.9833984-18.0146484,16.9833984s-17.9824219-6.9609375-17.9824219-16.9833984V27.4970703h4.3828125V57.5
		z"/>
	<path class="st0" d="M360.6708984,61.3671875c0.4833984,5.5751953,5.7363281,9.3779297,13.0195313,9.3779297
		c6.9609375,0,11.9560547-3.8027344,11.9560547-9.0234375c0-4.3505859-2.9970703-6.9287109-9.8935547-8.6689453
		l-5.7685547-1.4824219c-8.6044922-2.1914063-12.4394531-5.8330078-12.4394531-11.9560547
		c0-7.5087891,6.7675781-12.8583984,15.9199219-12.8583984c9.0556641,0,15.6943359,5.3496094,15.9521484,12.7294922h-4.4150391
		c-0.4189453-5.2529297-5.0595703-8.7333984-11.6660156-8.7333984c-6.4453125,0-11.2148438,3.5771484-11.2148438,8.7011719
		c0,3.9960938,2.9003906,6.3486328,9.7324219,8.0888672l5.0273438,1.2890625
		c9.3457031,2.3525391,13.2773438,5.9296875,13.2773438,12.4072266c0,8.1533203-6.5742188,13.5029297-16.8544922,13.5029297
		c-9.7324219,0-16.5644531-5.3818359-17.0478516-13.3740234H360.6708984z"/>
</g>
<g>
</g>
<g>
</g>
<g>
</g>
<g>
</g>
<g>
</g>
<g>
</g>
<g>
</g>
<g>
</g>
<g>
</g>
<g>
</g>
<g>
</g>
<g>
</g>
<g>
</g>
<g>
</g>
<g>
</g>
</svg>
